<svg width="12" height="12" viewBox="0 0 12 12" fill="none" xmlns="http://www.w3.org/2000/svg">
<path d="M11.625 5.40625H2.48286L7.95473 0.65625C8.04223 0.579688 7.98911 0.4375 7.87348 0.4375H6.49067C6.42973 0.4375 6.37192 0.459375 6.32661 0.498437L0.42192 5.62187C0.36784 5.66875 0.324468 5.72671 0.294743 5.79181C0.265018 5.85692 0.249634 5.92765 0.249634 5.99922C0.249634 6.07079 0.265018 6.14152 0.294743 6.20663C0.324468 6.27173 0.36784 6.32968 0.42192 6.37656L6.36098 11.5312C6.38442 11.5516 6.41254 11.5625 6.44223 11.5625H7.87192C7.98754 11.5625 8.04067 11.4187 7.95317 11.3438L2.48286 6.59375H11.625C11.6938 6.59375 11.75 6.5375 11.75 6.46875V5.53125C11.75 5.4625 11.6938 5.40625 11.625 5.40625Z" fill="white"/>
</svg>
